{
    "Servers": {
        "1": {
            "Name": "Portable GIS",
            "Group": "Portable GIS",
            "Host": "localhost",
            "Port": 3432,
            "MaintenanceDB": "postgres",
            "Username": "pgis",
            "SSLMode": "prefer",
            "SSLCompression": 0,
            "Timeout": 0,
            "UseSSHTunnel": 0,
            "TunnelPort": "22",
            "TunnelAuthentication": 0
        }
    }
}